{
    "$schema": "https://schemas.wp.org/trunk/block.json",
    "apiVersion": 3,
    "name": "custom/quote",
    "title": "Quote",
    "category": "widgets",
    "icon": "editor-quote",
    "description": "Add a quote to your page.",
    "attributes": {
        "quoteText": {
            "type": "string"
        },
        "attribution": {
            "type": "string"
        },
        "imageId": {
            "type": "number"
        },
        "focalPoint": {
            "type": "object"
        },
        "showCTALink": {
            "type": "boolean"
        },
        "linkText": {
            "type": "string"
        },
        "linkUrl": {
            "type": "string"
        },
        "opensInNewTab": {
            "type": "boolean",
            "default": false
        }
    },
    "example": {
        "attributes": {
            "quoteText": "The BA program has challenged me in ways I never thought possible and has opened my eyes to so many new perspectives. I feel like this degree is setting me up to make a real impact in the world and follow my dreams in the art industry.",
            "attribution": "Ana Ramirez, Art History (2025)",
            "showCTALink": true,
            "linkText": "Explore the program",
            "linkUrl": "https://wordpress.org",
            "imageId": 0,
            "imageUrl": "https://wordpress.org/static/images/home/logotype.svg"
        }
    },
    "supports": {
        "html": false
    },
    "textdomain": "custom",
    "editorScript": "file:./index.js",
    "editorStyle": "file:./index.css",
    "style": "file:./style-index.css",
    "render": "file:./render.php",
    "viewScript": "file:./view.js"
}
