{
    "$schema": "https://schemas.wp.org/trunk/block.json",
    "apiVersion": 3,
    "name": "custom/profile-post",
    "version": "0.1.0",
    "title": "Profile Post",
    "category": "widgets",
    "icon": "users",
    "description": "Primary fields for a profile post.",
    "attributes": {
        "showPrefix": {
            "type": "boolean",
            "default": false
        }
    },
    "example": {
        "attributes": {
            "summary": "Lorem ipsum dolor sit amet, consectetur adipiscing elit."
        }
    },
    "supports": {
        "html": false
    },
    "textdomain": "cards",
    "editorScript": "file:./index.js",
    "editorStyle": "file:./index.css",
    "style": "file:./style-index.css",
    "render": "file:./render.php",
    "viewScript": "file:./view.js"
}
