{
	"$schema": "https://schemas.wp.org/trunk/block.json",
	"apiVersion": 3,
	"name": "custom/giving-form",
	"version": "0.1.0",
	"title": "Giving form",
	"category": "widgets",
	"icon": "id",
	"description": "Giving form",
    "attributes": {
        "heading": {
            "type": "string"
        },
        "showHeading": {
            "type": "boolean",
            "default": true
        }
    },
	"example": {
        "attributes": {
            "heading": "Optional header for giving form"
        }
    },
	"supports": {
		"html": false
	},
	"textdomain": "custom",
	"editorScript": "file:./index.js",
	"editorStyle": "file:./index.css",
	"style": "file:./style-index.css",
	"viewScript": "file:./view.js"
}
