{
	"$schema": "https://schemas.wp.org/trunk/block.json",
	"apiVersion": 3,
	"name": "custom/link-lists",
	"version": "0.1.0",
	"title": "Link lists",
	"category": "widgets",
	"icon": "id",
	"description": "Link lists",
    "attributes": {
        "header": {
            "type": "string"
        },
        "showDescription": {
            "type": "boolean",
            "default": false
        },
        "description": {
            "type": "string"
        }
    },
	"example": {
        "attributes": {
        }
    },
	"supports": {
		"html": false
	},
	"textdomain": "custom",
	"editorScript": "file:./index.js",
	"editorStyle": "file:./index.css",
	"style": "file:./style-index.css",
	"viewScript": "file:./view.js"
}
